%YAML 1.1
%TAG !u! tag:unity3d.com,2011:
--- !u!114 &11400000
MonoBehaviour:
  m_ObjectHideFlags: 0
  m_CorrespondingSourceObject: {fileID: 0}
  m_PrefabInstance: {fileID: 0}
  m_PrefabAsset: {fileID: 0}
  m_GameObject: {fileID: 0}
  m_Enabled: 1
  m_EditorHideFlags: 0
  m_Script: {fileID: 11500000, guid: 83528488d5a9bb3439d4e7c97d5655f8, type: 3}
  m_Name: ChangeTowel
  m_EditorClassIdentifier: 
  gameTaskText: "H\xE4nge neue Handt\xFCcher auf"
